TEST_IP/sort.vcd
$date
   Wed Jan 10 06:49:08 2024
$end
$version
  2022.1
$end
$timescale
  1ps
$end
$scope module qsort_tb $end
$var wire 1 ! awready $end
$var wire 1 " wready $end
$var reg 1 # awvalid $end
$var reg 12 $ awaddr [11:0] $end
$var reg 1 % wvalid $end
$var reg 32 & wdata [31:0] $end
$var wire 1 ' arready $end
$var reg 1 ( rready $end
$var reg 1 ) arvalid $end
$var reg 12 * araddr [11:0] $end
$var wire 1 + rvalid $end
$var wire 32 , rdata [31:0] $end
$var reg 1 - ss_tvalid $end
$var reg 32 . ss_tdata [31:0] $end
$var reg 1 / ss_tlast $end
$var wire 1 0 ss_tready $end
$var reg 1 1 sm_tready $end
$var wire 1 2 sm_tvalid $end
$var wire 32 3 sm_tdata [31:0] $end
$var wire 1 4 sm_tlast $end
$var reg 1 5 axis_clk $end
$var reg 1 6 axis_rst_n $end
$var integer 32 7 m [31:0] $end
$var integer 32 8 n [31:0] $end
$var integer 32 9 p [31:0] $end
$var integer 32 : i [31:0] $end
$var integer 32 ; k [31:0] $end
$var reg 1 < error $end
$var reg 1 = error_coef $end
$var integer 32 > timeout [31:0] $end
$scope module qsort $end
$var reg 1 ? awready $end
$var reg 1 @ wready $end
$var wire 1 A awvalid $end
$var wire 12 B awaddr [11:0] $end
$var wire 1 C wvalid $end
$var wire 32 D wdata [31:0] $end
$var reg 1 E arready $end
$var wire 1 F rready $end
$var wire 1 G arvalid $end
$var wire 12 H araddr [11:0] $end
$var reg 1 I rvalid $end
$var reg 32 J rdata [31:0] $end
$var wire 1 K ss_tvalid $end
$var wire 32 L ss_tdata [31:0] $end
$var wire 1 M ss_tlast $end
$var reg 1 N ss_tready $end
$var wire 1 O sm_tready $end
$var reg 1 P sm_tvalid $end
$var reg 32 Q sm_tdata [31:0] $end
$var reg 1 R sm_tlast $end
$var wire 1 S axis_clk $end
$var wire 1 T axis_rst_n $end
$var reg 1 U ap_start $end
$var reg 1 V n_ap_start $end
$var reg 1 W ap_idle $end
$var reg 1 X n_ap_idle $end
$var reg 1 Y ap_done $end
$var reg 1 Z n_ap_done $end
$var reg 1 [ stream_in_ready $end
$var reg 1 \ stream_out_ready $end
$var reg 3 ] axi_read_state [2:0] $end
$var reg 3 ^ n_axi_read_state [2:0] $end
$var reg 3 _ axi_write_state [2:0] $end
$var reg 3 ` n_axi_write_state [2:0] $end
$var integer 32 a i [31:0] $end
$var integer 32 b j [31:0] $end
$var integer 32 c k [31:0] $end
$var reg 3 d sort_state [2:0] $end
$var reg 3 e n_sort_state [2:0] $end
$var reg 32 f axiwaddr [31:0] $end
$var reg 32 g axiraddr [31:0] $end
$var reg 5 h cnt_out [4:0] $end
$var reg 5 i cnt_sort [4:0] $end
$var reg 5 j cnt_in [4:0] $end
$scope module comp1 $end
$var wire 32 k in1 [31:0] $end
$var wire 32 l in2 [31:0] $end
$var wire 32 m out1 [31:0] $end
$var wire 32 n out2 [63:32] $end
$upscope $end
$scope module comp2 $end
$var wire 32 o in1 [31:0] $end
$var wire 32 p in2 [31:0] $end
$var wire 32 q out1 [95:64] $end
$var wire 32 r out2 [127:96] $end
$upscope $end
$scope module comp3 $end
$var wire 32 s in1 [31:0] $end
$var wire 32 t in2 [31:0] $end
$var wire 32 u out1 [159:128] $end
$var wire 32 v out2 [191:160] $end
$upscope $end
$scope module comp4 $end
$var wire 32 w in1 [31:0] $end
$var wire 32 x in2 [31:0] $end
$var wire 32 y out1 [223:192] $end
$var wire 32 z out2 [255:224] $end
$upscope $end
$scope module comp5 $end
$var wire 32 { in1 [31:0] $end
$var wire 32 | in2 [31:0] $end
$var wire 32 } out1 [287:256] $end
$var wire 32 ~ out2 [319:288] $end
$upscope $end
$upscope $end
$scope task config_write $end
$var reg 12 !! addr [11:0] $end
$var reg 32 "! data [31:0] $end
$upscope $end
$scope task config_read_check $end
$var reg 12 #! addr [11:0] $end
$var reg 32 $! exp_data [31:0] $end
$var reg 32 %! mask [31:0] $end
$upscope $end
$scope task ss $end
$var reg 32 &! in1 [31:0] $end
$upscope $end
$scope task sm $end
$var reg 32 '! in2 [31:0] $end
$var reg 32 (! pcnt [31:0] $end
$upscope $end
$upscope $end
$enddefinitions $end
#0
$dumpvars
0!
bx !!
0"
bx "!
x#
bx #!
bx $
bx $!
x%
bx %!
bx &
bx &!
0'
bx '!
x(
bx (!
x)
bx *
0+
b100 ,
x-
bx .
x/
00
01
02
b0 3
04
05
06
b1010 7
bx 8
bx 9
bx :
bx ;
0<
0=
b1111101000 >
0?
0@
xA
bx B
xC
bx D
0E
xF
xG
bx H
0I
b100 J
xK
bx L
xM
0N
0O
0P
b0 Q
0R
0S
0T
0U
0V
1W
1X
0Y
0Z
0[
0\
b0 ]
b0x ^
b0 _
b0x `
b1010 a
bx b
bx c
b0 d
b0 e
b0 f
b0 g
b0 h
b0 i
b0 j
b0 k
b0 l
b0 m
b0 n
b0 o
b0 p
b0 q
b0 r
b0 s
b0 t
b0 u
b0 v
b0 w
b0 x
b0 y
b0 z
b0 {
b0 |
b0 }
b0 ~
$end
#5000
b0 !!
b1 "!
0#
0%
15
b1111100111 >
0?
0@
0A
0C
0E
0I
1S
0U
1W
0Y
b0 ]
b0 _
b0 `
b1010 a
b0 d
b0 e
b0 f
b0 g
b0 h
b0 i
b0 j
#10000
05
0S
#15000
1#
b0 $
1%
b1 &
x'
15
16
b1111100110 >
0?
0@
1A
b0 B
1C
b1 D
xE
0I
1S
1T
0U
1W
0Y
b0x ]
b0 ^
b0 _
b1 `
b0 d
b0 e
b0 f
b0 g
b0 h
b0 i
b0 j
#20000
05
0S
#25000
1!
0'
b0 ,
15
b1111100101 >
1?
0@
0E
0I
b0 J
1S
0U
1W
0Y
b0 ]
b0x ^
b1 _
b10 `
b0 d
b0 f
b0xxxxxxxxxxxx g
b0 h
b0 i
b0 j
#30000
05
0S
#35000
0!
1"
b1010 &!
x'
0-
0/
15
b0 :
b1111100100 >
0?
1@
xE
0I
0K
0M
1S
0U
1V
1W
0X
0Y
b0x ]
b0 ^
b10 _
b0 `
b0 d
b1 e
b0 f
b0xxxxxxxxxxxx g
b0 h
b0 i
b0 j
#40000
1-
b1010 .
05
1K
b1010 L
0S
b1 e
#45000
0"
0'
15
b1111100011 >
0?
0@
0E
0I
b0 J
0N
0P
b0 Q
0R
1S
1U
0W
0Y
1[
b0 ]
b0x ^
b0 _
b1 `
b1 d
b10 e
b0 f
b0xxxxxxxxxxxx g
b0 h
b0 i
b0 j
#50000
05
0S
#55000
1!
x'
10
15
b1111100010 >
1?
0@
xE
0I
b0 J
1N
0P
b0 Q
0R
1S
1U
0V
0W
0Y
0[
b0x ]
b0 ^
b1 _
b10 `
b10 d
b1 e
b0 f
b0xxxxxxxxxxxx g
#60000
05
0S
#65000
0!
1"
0'
00
15
b1111100001 >
0?
1@
0E
0I
b0 J
0N
0P
b0 Q
0R
1S
0U
1V
0W
0Y
1[
b0 ]
b0x ^
b10 _
b0 `
b1 d
b10 e
b0 f
b0xxxxxxxxxxxx g
b1 j
#70000
05
0S
#75000
0"
b1001 &!
x'
10
15
b1 :
b1111100000 >
0?
0@
xE
0I
b0 J
1N
0P
b0 Q
0R
1S
1U
0V
0W
0Y
0[
b0x ]
b0 ^
b0 _
b1 `
b10 d
b1 e
b0 f
b0xxxxxxxxxxxx g
#80000
1-
b1001 .
05
b1001 L
0S
#85000
1!
b1000 &!
0'
00
15
b10 :
b1111011111 >
1?
0@
0E
0I
b0 J
0N
0P
b0 Q
0R
1S
0U
0W
0Y
1[
b0 ]
b0x ^
b1 _
b10 `
b1 d
b10 e
b0 f
b0xxxxxxxxxxxx g
b10 j
#90000
1-
b1000 .
05
b1000 L
0S
#95000
0!
1"
x'
10
15
b1111011110 >
0?
1@
xE
0I
b0 J
1N
0P
b0 Q
0R
1S
0U
1V
0W
0Y
0[
b0x ]
b0 ^
b10 _
b0 `
b10 d
b1 e
b0 f
b0xxxxxxxxxxxx g
#100000
05
0S
#105000
0"
0'
00
15
b1111011101 >
0?
0@
0E
0I
b0 J
0N
0P
b0 Q
0R
1S
1U
0W
0Y
1[
b0 ]
b0x ^
b0 _
b1 `
b1 d
b10 e
b0 f
b0xxxxxxxxxxxx g
b11 j
#110000
05
0S
#115000
1!
b111 &!
x'
10
15
b11 :
b1111011100 >
1?
0@
xE
0I
b0 J
1N
0P
b0 Q
0R
1S
1U
0V
0W
0Y
0[
b0x ]
b0 ^
b1 _
b10 `
b10 d
b1 e
b0 f
b0xxxxxxxxxxxx g
#120000
1-
b111 .
05
b111 L
0S
#125000
0!
1"
b110 &!
0'
00
15
b100 :
b1111011011 >
0?
1@
0E
0I
b0 J
0N
0P
b0 Q
0R
1S
0U
1V
0W
0Y
1[
b0 ]
b0x ^
b10 _
b0 `
b1 d
b10 e
b0 f
b0xxxxxxxxxxxx g
b100 j
#130000
1-
b110 .
05
b110 L
0S
#135000
0"
x'
10
15
b1111011010 >
0?
0@
xE
0I
b0 J
1N
0P
b0 Q
0R
1S
1U
0V
0W
0Y
0[
b0x ]
b0 ^
b0 _
b1 `
b10 d
b1 e
b0 f
b0xxxxxxxxxxxx g
#140000
05
0S
#145000
1!
0'
00
15
b1111011001 >
1?
0@
0E
0I
b0 J
0N
0P
b0 Q
0R
1S
0U
0W
0Y
1[
b0 ]
b0x ^
b1 _
b10 `
b1 d
b10 e
b0 f
b0xxxxxxxxxxxx g
b101 j
#150000
05
0S
#155000
0!
1"
b101 &!
x'
10
15
b101 :
b1111011000 >
0?
1@
xE
0I
b0 J
1N
0P
b0 Q
0R
1S
0U
1V
0W
0Y
0[
b0x ]
b0 ^
b10 _
b0 `
b10 d
b1 e
b0 f
b0xxxxxxxxxxxx g
#160000
1-
b101 .
05
b101 L
0S
#165000
0"
b100 &!
0'
00
15
b110 :
b1111010111 >
0?
0@
0E
0I
b0 J
0N
0P
b0 Q
0R
1S
1U
0W
0Y
1[
b0 ]
b0x ^
b0 _
b1 `
b1 d
b10 e
b0 f
b0xxxxxxxxxxxx g
b110 j
#170000
1-
b100 .
05
b100 L
0S
#175000
1!
x'
10
15
b1111010110 >
1?
0@
xE
0I
b0 J
1N
0P
b0 Q
0R
1S
1U
0V
0W
0Y
0[
b0x ]
b0 ^
b1 _
b10 `
b10 d
b1 e
b0 f
b0xxxxxxxxxxxx g
#180000
05
0S
#185000
0!
1"
0'
00
15
b1111010101 >
0?
1@
0E
0I
b0 J
0N
0P
b0 Q
0R
1S
0U
1V
0W
0Y
1[
b0 ]
b0x ^
b10 _
b0 `
b1 d
b10 e
b0 f
b0xxxxxxxxxxxx g
b111 j
#190000
05
0S
#195000
0"
b11 &!
x'
10
15
b111 :
b1111010100 >
0?
0@
xE
0I
b0 J
1N
0P
b0 Q
0R
1S
1U
0V
0W
0Y
0[
b0x ]
b0 ^
b0 _
b1 `
b10 d
b1 e
b0 f
b0xxxxxxxxxxxx g
#200000
1-
b11 .
05
b11 L
0S
#205000
1!
b10 &!
0'
00
15
b1000 :
b1111010011 >
1?
0@
0E
0I
b0 J
0N
0P
b0 Q
0R
1S
0U
0W
0Y
1[
b0 ]
b0x ^
b1 _
b10 `
b1 d
b10 e
b0 f
b0xxxxxxxxxxxx g
b1000 j
#210000
1-
b10 .
05
b10 L
0S
#215000
0!
1"
x'
10
15
b1111010010 >
0?
1@
xE
0I
b0 J
1N
0P
b0 Q
0R
1S
0U
1V
0W
0Y
0[
b0x ]
b0 ^
b10 _
b0 `
b10 d
b1 e
b0 f
b0xxxxxxxxxxxx g
#220000
05
0S
#225000
0"
0'
00
15
b1111010001 >
0?
0@
0E
0I
b0 J
0N
0P
b0 Q
0R
1S
1U
0W
0Y
1[
b0 ]
b0x ^
b0 _
b1 `
b1 d
b10 e
b0 f
b0xxxxxxxxxxxx g
b1001 j
#230000
05
0S
#235000
1!
b1 &!
x'
10
15
b1001 :
b1111010000 >
1?
0@
xE
0I
b0 J
1N
0P
b0 Q
0R
1S
1U
0V
0W
0Y
0[
b0x ]
b0 ^
b1 _
b10 `
b10 d
b11 e
b0 f
b0xxxxxxxxxxxx g
#240000
1-
b1 .
05
b1 L
0S
#245000
0!
1"
b0 #!
b0 $!
b100 %!
0'
0)
00
15
b1010 :
b1111001111 >
0?
1@
0E
0G
0I
b0 J
0N
0P
b0 Q
0R
1S
0U
1V
0W
0Y
b0 ]
b0 ^
b10 _
b0 `
b11 d
b11 e
b0 f
b0xxxxxxxxxxxx g
b1010 j
b1010 k
b1001 l
b1001 m
b1010 n
b1000 o
b101 p
b101 q
b1000 r
b111 s
b100 t
b100 u
b111 v
b110 w
b11 x
b11 y
b110 z
b10 {
b1 |
b1 }
b10 ~
#250000
05
0S
#255000
0"
1(
1)
b0 *
15
b1111001110 >
0?
0@
0E
1F
1G
b0 H
0I
b0 J
0P
b0 Q
0R
1S
1U
0W
0Y
b0 ]
b1 ^
b0 _
b1 `
b11 d
b11 e
b0 f
b0xxxxxxxxxxxx g
b1 i
b1001 k
b111 l
b111 m
b1001 n
b1010 o
b1 p
b1 q
b1010 r
b101 s
b11 t
b11 u
b101 v
b100 w
b10 x
b10 y
b100 z
b1000 {
b110 |
b110 }
b1000 ~
#260000
05
0S
#265000
1!
1'
15
b1111001101 >
1?
0@
1E
0I
0P
b0 Q
0R
1S
1U
0W
0Y
b1 ]
b10 ^
b1 _
b10 `
b11 d
b11 e
b0 f
b0xxxxxxxxxxxx g
b10 i
b111 k
b11 l
b11 m
b111 n
b1 o
b10 p
b1 q
b10 r
b101 s
b110 t
b101 u
b110 v
b1001 w
b1010 x
b1001 y
b1010 z
b1000 {
b100 |
b100 }
b1000 ~
#270000
05
0S
#275000
0!
1"
0'
b1 ,
15
b1111001100 >
0?
1@
0E
0I
b1 J
0P
b0 Q
0R
1S
1U
0W
0Y
b10 ]
b11 ^
b10 _
b0 `
b11 d
b11 e
b0 f
b0 g
b11 i
b11 k
b1 l
b1 m
b11 n
b111 o
b100 p
b100 q
b111 r
b10 s
b110 t
b10 u
b110 v
b101 w
b1001 x
b101 y
b1001 z
b1010 {
b1000 |
b1000 }
b1010 ~
#280000
05
0S
#285000
0"
1+
15
b1111001011 >
0?
0@
0E
1I
0P
b0 Q
0R
1S
1U
0W
0Y
b11 ]
b0 ^
b0 _
b1 `
b11 d
b11 e
b0 f
b0 g
b100 i
b11 k
b100 l
b11 m
b100 n
b10 o
b101 p
b10 q
b101 r
b110 s
b1001 t
b110 u
b1001 v
b111 w
b1000 x
b111 y
b1000 z
b0 {
b0 |
b0 }
b0 ~
#290000
05
0S
#295000
1!
0+
15
b1111001010 >
1?
0@
0E
0I
1S
1U
0W
0Y
b0 ]
b1 ^
b1 _
b10 `
b11 d
b11 e
b0 f
b0 g
b101 i
b11 k
b10 l
b10 m
b11 n
b100 o
b101 p
b100 q
b101 r
b110 s
b111 t
b110 u
b111 v
b1001 w
b1000 x
b1000 y
b1001 z
#300000
05
0S
#305000
0!
1"
1'
15
b1111001001 >
0?
1@
1E
0I
1S
1U
0W
0Y
b1 ]
b10 ^
b10 _
b0 `
b11 d
b11 e
b0 f
b0 g
b110 i
b100 k
b11 l
b11 m
b100 n
b101 o
b110 p
b101 q
b110 r
b1000 s
b111 t
b111 u
b1000 v
b0 w
b0 x
b0 y
b0 z
#310000
05
0S
#315000
0"
0'
15
b1111001000 >
0?
0@
0E
0I
1S
1U
0W
0Y
b10 ]
b11 ^
b0 _
b1 `
b11 d
b100 e
b0 f
b0 g
b111 i
b0 k
b0 l
b0 m
b0 n
b0 o
b0 p
b0 q
b0 r
b0 s
b0 t
b0 u
b0 v
#320000
05
0S
#325000
1!
b1 '!
b0 (!
1+
b100001 ,
12
b1 3
15
b0 ;
b1111000111 >
1?
0@
0E
1I
b100001 J
0N
1P
b1 Q
0R
1S
1U
0W
0Y
1\
b11 ]
b0 ^
b1 _
b10 `
b100 d
b100 e
b0 f
b0 g
b1000 i
#330000
11
05
1O
0S
b100 e
#335000
0!
1"
b10 '!
b1 (!
0+
b10 3
15
b1 ;
b1111000110 >
0?
1@
0E
0I
1P
b10 Q
0R
1S
1U
0W
0Y
b0 ]
b1 ^
b10 _
b0 `
b100 d
b100 e
b0 f
b0 g
b1 h
#340000
11
05
0S
#345000
0"
1'
b11 '!
b10 (!
b11 3
15
b10 ;
b1111000101 >
0?
0@
1E
0I
1P
b11 Q
0R
1S
1U
0W
0Y
b1 ]
b10 ^
b0 _
b1 `
b100 d
b100 e
b0 f
b0 g
b10 h
#350000
11
05
0S
#355000
1!
0'
b100 '!
b11 (!
b100 3
15
b11 ;
b1111000100 >
1?
0@
0E
0I
1P
b100 Q
0R
1S
1U
0W
0Y
b10 ]
b11 ^
b1 _
b10 `
b100 d
b100 e
b0 f
b0 g
b11 h
#360000
11
05
0S
#365000
0!
1"
b101 '!
b100 (!
1+
b101 3
15
b100 ;
b1111000011 >
0?
1@
0E
1I
1P
b101 Q
0R
1S
1U
0W
0Y
b11 ]
b0 ^
b10 _
b0 `
b100 d
b100 e
b0 f
b0 g
b100 h
#370000
11
05
0S
#375000
0"
b110 '!
b101 (!
0+
b110 3
15
b101 ;
b1111000010 >
0?
0@
0E
0I
1P
b110 Q
0R
1S
1U
0W
0Y
b0 ]
b1 ^
b0 _
b1 `
b100 d
b100 e
b0 f
b0 g
b101 h
#380000
11
05
0S
#385000
1!
1'
b111 '!
b110 (!
b111 3
15
b110 ;
b1111000001 >
1?
0@
1E
0I
1P
b111 Q
0R
1S
1U
0W
0Y
b1 ]
b10 ^
b1 _
b10 `
b100 d
b100 e
b0 f
b0 g
b110 h
#390000
11
05
0S
#395000
0!
1"
0'
b1000 '!
b111 (!
b1000 3
15
b111 ;
b1111000000 >
0?
1@
0E
0I
1P
b1000 Q
0R
1S
1U
0W
0Y
b10 ]
b11 ^
b10 _
b0 `
b100 d
b100 e
b0 f
b0 g
b111 h
#400000
11
05
0S
#405000
0"
b1001 '!
b1000 (!
1+
b1001 3
15
b1000 ;
b1110111111 >
0?
0@
0E
1I
1P
b1001 Q
0R
1S
1U
0W
0Y
b11 ]
b0 ^
b0 _
b1 `
b100 d
b100 e
b0 f
b0 g
b1000 h
#410000
11
05
0S
#415000
1!
b1010 '!
b1001 (!
0+
b1010 3
14
15
b1001 ;
b1110111110 >
1?
0@
0E
0I
1P
b1010 Q
1R
1S
1U
0W
1X
0Y
1Z
b0 ]
b1 ^
b1 _
b10 `
b100 d
b0 e
b0 f
b0 g
b1001 h
#420000
11
05
0S
#425000
0!
1"
1'
bx '!
b1010 (!
b111 ,
02
b0 3
04
15
b1010 ;
b1110111101 >
0?
1@
1E
0I
b111 J
0N
0P
b0 Q
0R
1S
1U
1W
0X
1Y
0\
b1 ]
b10 ^
b10 _
b0 `
b0 d
b1 e
b0 f
b0 g
b1010 h
#430000
11
05
0S
#435000
0"
0'
b10011 ,
15
b1110111100 >
0?
0@
0E
0I
b10011 J
0N
0P
b0 Q
0R
1S
1U
0W
1Y
1[
b10 ]
b11 ^
b0 _
b1 `
b1 d
b10 e
b0 f
b0 g
b0 h
b0 i
b0 j
#440000
05
0S
#445000
1!
1+
b11 ,
10
15
b1110111011 >
1?
0@
0E
1I
b11 J
1N
0P
b0 Q
0R
1S
1U
0V
0W
1Y
0Z
0[
b11 ]
b0 ^
b1 _
b10 `
b10 d
b1 e
b0 f
b0 g
#450000
05
0S
#455000
0!
1"
0+
b10000 ,
00
15
b1110111010 >
0?
1@
0E
0I
b10000 J
0N
0P
b0 Q
0R
1S
0U
1V
0W
0Y
1[
b0 ]
b1 ^
b10 _
b0 `
b1 d
b10 e
b0 f
b0 g
b1 j
#460000
05
0S
#465000
0"
1'
b1 ,
10
15
b1110111001 >
0?
0@
1E
0I
b1 J
1N
0P
b0 Q
0R
1S
1U
0V
0W
0Y
0[
b1 ]
b10 ^
b0 _
b1 `
b10 d
b1 e
b0 f
b0 g
#470000
05
0S
#475000
1!
0'
b10000 ,
00
15
b1110111000 >
1?
0@
0E
0I
b10000 J
0N
0P
b0 Q
0R
1S
0U
0W
0Y
1[
b10 ]
b11 ^
b1 _
b10 `
b1 d
b10 e
b0 f
b0 g
b10 j
#480000
05
0S
#485000
0!
1"
1+
b0 ,
10
15
b1110110111 >
0?
1@
0E
1I
b0 J
1N
0P
b0 Q
0R
1S
0U
1V
0W
0Y
0[
b11 ]
b0 ^
b10 _
b0 `
b10 d
b1 e
b0 f
b0 g
#490000
05
0S
#495000
0"
0+
b10001 ,
00
15
b1110110110 >
0?
0@
0E
0I
b10001 J
0N
0P
b0 Q
0R
1S
1U
0W
0Y
1[
b0 ]
b1 ^
b0 _
b1 `
b1 d
b10 e
b0 f
b0 g
b11 j
#500000
05
0S
#505000
1!
1'
b1 ,
10
15
b1110110101 >
1?
0@
1E
0I
b1 J
1N
0P
b0 Q
0R
1S
1U
0V
0W
0Y
0[
b1 ]
b10 ^
b1 _
b10 `
b10 d
b1 e
b0 f
b0 g
#510000
05
0S
#515000
0!
1"
0'
b10000 ,
00
15
b1110110100 >
0?
1@
0E
0I
b10000 J
0N
0P
b0 Q
0R
1S
0U
1V
0W
0Y
1[
b10 ]
b11 ^
b10 _
b0 `
b1 d
b10 e
b0 f
b0 g
b100 j
#520000
05
0S
#525000
0"
1+
b1 ,
10
15
b1110110011 >
0?
0@
0E
1I
b1 J
1N
0P
b0 Q
0R
1S
1U
0V
0W
0Y
0[
b11 ]
b0 ^
b0 _
b1 `
b10 d
b1 e
b0 f
b0 g
#530000
05
0S
#535000
1!
0+
b10000 ,
00
15
b1110110010 >
1?
0@
0E
0I
b10000 J
0N
0P
b0 Q
0R
1S
0U
0W
0Y
1[
b0 ]
b1 ^
b1 _
b10 `
b1 d
b10 e
b0 f
b0 g
b101 j
#540000
05
0S
#545000
0!
1"
1'
b0 ,
10
15
b1110110001 >
0?
1@
1E
0I
b0 J
1N
0P
b0 Q
0R
1S
0U
1V
0W
0Y
0[
b1 ]
b10 ^
b10 _
b0 `
b10 d
b1 e
b0 f
b0 g
#550000
05
0S
#555000
0"
0'
b10001 ,
00
15
b1110110000 >
0?
0@
0E
0I
b10001 J
0N
0P
b0 Q
0R
1S
1U
0W
0Y
1[
b10 ]
b11 ^
b0 _
b1 `
b1 d
b10 e
b0 f
b0 g
b110 j
#560000
05
0S
#565000
1!
1+
b1 ,
10
15
b1110101111 >
1?
0@
0E
1I
b1 J
1N
0P
b0 Q
0R
1S
1U
0V
0W
0Y
0[
b11 ]
b0 ^
b1 _
b10 `
b10 d
b1 e
b0 f
b0 g
#570000
05
0S
#575000
0!
1"
0+
b10000 ,
00
15
b1110101110 >
0?
1@
0E
0I
b10000 J
0N
0P
b0 Q
0R
1S
0U
1V
0W
0Y
1[
b0 ]
b1 ^
b10 _
b0 `
b1 d
b10 e
b0 f
b0 g
b111 j
#580000
05
0S
#585000
0"
1'
b1 ,
10
15
b1110101101 >
0?
0@
1E
0I
b1 J
1N
0P
b0 Q
0R
1S
1U
0V
0W
0Y
0[
b1 ]
b10 ^
b0 _
b1 `
b10 d
b1 e
b0 f
b0 g
#590000
05
0S
#595000
1!
0'
b10000 ,
00
15
b1110101100 >
1?
0@
0E
0I
b10000 J
0N
0P
b0 Q
0R
1S
0U
0W
0Y
1[
b10 ]
b11 ^
b1 _
b10 `
b1 d
b10 e
b0 f
b0 g
b1000 j
#600000
05
0S
#605000
0!
1"
1+
b0 ,
10
15
b1110101011 >
0?
1@
0E
1I
b0 J
1N
0P
b0 Q
0R
1S
0U
1V
0W
0Y
0[
b11 ]
b0 ^
b10 _
b0 `
b10 d
b1 e
b0 f
b0 g
#610000
05
0S
#615000
0"
0+
b10001 ,
00
15
b1110101010 >
0?
0@
0E
0I
b10001 J
0N
0P
b0 Q
0R
1S
1U
0W
0Y
1[
b0 ]
b1 ^
b0 _
b1 `
b1 d
b10 e
b0 f
b0 g
b1001 j
#620000
05
0S
#625000
1!
1'
b1 ,
10
15
b1110101001 >
1?
0@
1E
0I
b1 J
1N
0P
b0 Q
0R
1S
1U
0V
0W
0Y
0[
b1 ]
b10 ^
b1 _
b10 `
b10 d
b11 e
b0 f
b0 g
#630000
05
0S
#635000
0!
1"
0'
b0 ,
00
15
b1110101000 >
0?
1@
0E
0I
b0 J
0N
0P
b0 Q
0R
1S
0U
1V
0W
0Y
b10 ]
b11 ^
b10 _
b0 `
b11 d
b11 e
b0 f
b0 g
b1010 j
b1 k
b1 l
b1 m
b1 n
b1 o
b1 p
b1 q
b1 r
b1 s
b1 t
b1 u
b1 v
b1 w
b1 x
b1 y
b1 z
b1 {
b1 |
b1 }
b1 ~
#640000
05
0S
#645000
0"
1+
b1 ,
15
b1110100111 >
0?
0@
0E
1I
b1 J
1S
1U
0W
0Y
b11 ]
b0 ^
b0 _
b1 `
b11 d
b11 e
b0 f
b0 g
b1 i
b1 k
b1 l
b1 o
b1 p
b1 s
b1 t
b1 w
b1 x
b1 {
b1 |
#650000
05
0S
#655000
1!
0+
15
b1110100110 >
1?
0@
0E
0I
1S
1U
0W
0Y
b0 ]
b1 ^
b1 _
b10 `
b11 d
b11 e
b0 f
b0 g
b10 i
b1 k
b1 l
b1 o
b1 p
b1 s
b1 t
b1 w
b1 x
b1 {
b1 |
#660000
05
0S
#665000
0!
1"
1'
15
b1110100101 >
0?
1@
1E
0I
1S
1U
0W
0Y
b1 ]
b10 ^
b10 _
b0 `
b11 d
b11 e
b0 f
b0 g
b11 i
b1 k
b1 l
b1 o
b1 p
b1 s
b1 t
b1 w
b1 x
b1 {
b1 |
#670000
05
0S
#675000
0"
0'
15
b1110100100 >
0?
0@
0E
0I
1S
1U
0W
0Y
b10 ]
b11 ^
b0 _
b1 `
b11 d
b11 e
b0 f
b0 g
b100 i
b1 k
b1 l
b1 o
b1 p
b1 s
b1 t
b1 w
b1 x
b0 {
b0 |
b0 }
b0 ~
#680000
05
0S
#685000
1!
1+
15
b1110100011 >
1?
0@
0E
1I
1S
1U
0W
0Y
b11 ]
b0 ^
b1 _
b10 `
b11 d
b11 e
b0 f
b0 g
b101 i
b1 k
b1 l
b1 o
b1 p
b1 s
b1 t
b1 w
b1 x
#690000
05
0S
#695000
0!
1"
0+
15
b1110100010 >
0?
1@
0E
0I
1S
1U
0W
0Y
b0 ]
b1 ^
b10 _
b0 `
b11 d
b11 e
b0 f
b0 g
b110 i
b1 k
b1 l
b1 o
b1 p
b1 s
b1 t
b0 w
b0 x
b0 y
b0 z
#700000
05
0S
#705000
0"
1'
15
b1110100001 >
0?
0@
1E
0I
1S
1U
0W
0Y
b1 ]
b10 ^
b0 _
b1 `
b11 d
b100 e
b0 f
b0 g
b111 i
b0 k
b0 l
b0 m
b0 n
b0 o
b0 p
b0 q
b0 r
b0 s
b0 t
b0 u
b0 v
#710000
05
0S
#715000
1!
0'
b100001 ,
12
b1 3
15
b1110100000 >
1?
0@
0E
0I
b100001 J
0N
1P
b1 Q
0R
1S
1U
0W
0Y
1\
b10 ]
b11 ^
b1 _
b10 `
b100 d
b100 e
b0 f
b0 g
b1000 i
#720000
05
0S
#725000
0!
1"
b0 #!
b10 $!
b10 %!
0)
1+
15
b1011 ;
b1110011111 >
0?
1@
0E
0G
1I
1P
b1 Q
0R
1S
1U
0W
0Y
b11 ]
b0 ^
b10 _
b0 `
b100 d
b100 e
b0 f
b0 g
b1 h
#730000
05
0S
#735000
0"
1(
1)
b0 *
0+
15
b1110011110 >
0?
0@
0E
1G
0I
1P
b1 Q
0R
1S
1U
0W
0Y
b0 ]
b1 ^
b0 _
b1 `
b100 d
b100 e
b0 f
b0 g
b10 h
#740000
05
0S
#745000
1!
1'
15
b1110011101 >
1?
0@
1E
0I
1P
b1 Q
0R
1S
1U
0W
0Y
b1 ]
b10 ^
b1 _
b10 `
b100 d
b100 e
b0 f
b0 g
b11 h
#750000
05
0S
#755000
0!
1"
0'
15
b1110011100 >
0?
1@
0E
0I
1P
b1 Q
0R
1S
1U
0W
0Y
b10 ]
b11 ^
b10 _
b0 `
b100 d
b100 e
b0 f
b0 g
b100 h
#760000
05
0S
#765000
0"
1+
15
b1110011011 >
0?
0@
0E
1I
1P
b1 Q
0R
1S
1U
0W
0Y
b11 ]
b0 ^
b0 _
b1 `
b100 d
b100 e
b0 f
b0 g
b101 h
#770000
05
0S
#775000
1!
b0 #!
b100 $!
b100 %!
0)
0+
15
1=
b1110011010 >
1?
0@
0E
0G
0I
1P
b1 Q
0R
1S
1U
0W
0Y
b0 ]
b0 ^
b1 _
b10 `
b100 d
b100 e
b0 f
b0 g
b110 h
#780000
05
0S
#785000
0!
1"
1(
1)
b0 *
15
b1110011001 >
0?
1@
0E
1G
0I
1P
b1 Q
0R
1S
1U
0W
0Y
b0 ]
b1 ^
b10 _
b0 `
b100 d
b100 e
b0 f
b0 g
b111 h
#790000
05
0S
#795000
0"
1'
15
b1110011000 >
0?
0@
1E
0I
1P
b1 Q
0R
1S
1U
0W
0Y
b1 ]
b10 ^
b0 _
b1 `
b100 d
b100 e
b0 f
b0 g
b1000 h
#800000
05
0S
#805000
1!
0'
14
15
b1110010111 >
1?
0@
0E
0I
1P
b1 Q
1R
1S
1U
0W
1X
0Y
1Z
b10 ]
b11 ^
b1 _
b10 `
b100 d
b0 e
b0 f
b0 g
b1001 h
#810000
05
0S
#815000
0!
1"
1+
b111 ,
02
b0 3
04
15
b1110010110 >
0?
1@
0E
1I
b111 J
0N
0P
b0 Q
0R
1S
1U
1W
0X
1Y
0\
b11 ]
b0 ^
b10 _
b0 `
b0 d
b1 e
b0 f
b0 g
b1010 h
